<svg width="14" height="16" viewBox="0 0 14 16" fill="none" xmlns="http://www.w3.org/2000/svg">
<path d="M12.5074 7.14604C13.1738 7.53144 13.1731 8.49369 12.5061 8.87809L2.00161 14.9325C1.33466 15.3169 0.501681 14.8351 0.502253 14.0653L0.511251 1.94099C0.511822 1.17118 1.34551 0.690679 2.01189 1.07607L12.5074 7.14604Z" fill="#93282C"/>
</svg>
