<svg width="82" height="112" viewBox="0 0 82 112" fill="none" xmlns="http://www.w3.org/2000/svg">
<path d="M5.82652 79.3603H4.28421C5.31242 83.6445 8.39705 87.0719 12.6813 88.2715V86.7291C9.42526 85.5296 6.85473 82.7877 5.82652 79.3603ZM12.6813 66.679V65.1367C8.56842 66.3363 5.31242 69.7637 4.28421 74.0479H5.82652C6.85473 70.4491 9.42526 67.7073 12.6813 66.679ZM16.6227 70.2778H15.4232V73.3624H16.6227V70.2778ZM15.9373 60.5098C7.19746 60.5098 0 67.7072 0 76.6184C0 85.5296 7.19746 92.727 15.9373 92.727C24.677 92.727 31.8745 85.5296 31.8745 76.6184C32.0459 67.7072 24.8484 60.5098 15.9373 60.5098ZM15.9373 90.842C8.0543 90.842 1.88504 84.5014 1.88504 76.6184C1.88504 68.7354 8.22567 62.3948 15.9373 62.3948C23.8202 62.3948 29.9895 68.7354 29.9895 76.6184C30.1609 84.5014 23.8202 90.842 15.9373 90.842ZM9.768 77.3039H13.5381V75.9329H9.768V77.3039ZM26.2194 74.0479H27.7617C26.7335 69.7637 23.6488 66.3363 19.3646 65.1367V66.679C22.6206 67.7073 25.1912 70.4491 26.2194 74.0479ZM26.2194 79.3603C25.3625 82.7877 22.792 85.5296 19.3646 86.7291V88.2715C23.4775 87.0719 26.7335 83.6445 27.7617 79.3603H26.2194ZM21.7638 75.9329H18.6792V77.1325H21.7638V75.9329ZM15.9373 74.7333C14.909 74.7333 14.0522 75.5902 14.0522 76.6184C14.0522 77.6466 14.909 78.5035 15.9373 78.5035C16.9655 78.5035 17.8223 77.6466 17.8223 76.6184C17.8223 75.5902 17.1368 74.7333 15.9373 74.7333ZM15.4232 82.2736H16.6227V79.1889H15.4232V82.2736Z" fill="white"/>
<path d="M9.768 16.9831H13.5381V15.7835H9.768V16.9831ZM5.82652 19.0395H4.28421C5.31242 23.3237 8.39705 26.7511 12.6813 27.9507V26.4084C9.42526 25.2088 6.85473 22.4669 5.82652 19.0395ZM12.6813 6.35825V4.81594C8.56842 6.01552 5.31242 9.44292 4.28421 13.7271H5.82652C6.85473 10.2998 9.42526 7.55783 12.6813 6.35825ZM16.6227 10.1284H15.4232V13.213H16.6227V10.1284ZM26.2194 13.7271H27.7617C26.7335 9.44292 23.6488 6.01552 19.3646 4.81594V6.35825C22.6206 7.55783 25.1912 10.2998 26.2194 13.7271ZM26.2194 19.0395C25.3625 22.4669 22.792 25.2088 19.3646 26.4084V27.9507C23.4775 26.7511 26.7335 23.3237 27.7617 19.0395H26.2194ZM15.9373 0.360352C7.19746 0.360352 0 7.55782 0 16.469C0 25.3801 7.19746 32.5777 15.9373 32.5777C24.677 32.5777 31.8745 25.3801 31.8745 16.469C32.0459 7.55782 24.8484 0.360352 15.9373 0.360352ZM15.9373 30.6926C8.0543 30.6926 1.88504 24.3519 1.88504 16.469C1.88504 8.58603 8.22567 2.24542 15.9373 2.24542C23.8202 2.24542 29.9895 8.58603 29.9895 16.469C30.1609 24.1806 23.8202 30.6926 15.9373 30.6926ZM21.7638 15.7835H18.6792V16.9831H21.7638V15.7835ZM15.9373 14.4126C14.909 14.4126 14.0522 15.2694 14.0522 16.2977C14.0522 17.3259 14.909 18.1827 15.9373 18.1827C16.9655 18.1827 17.8223 17.3259 17.8223 16.2977C17.8223 15.2694 17.1368 14.4126 15.9373 14.4126ZM15.4232 21.9528H16.6227V18.8682H15.4232V21.9528Z" fill="white"/>
<path d="M55.3519 51.2563H53.8096C54.8378 55.5405 57.9224 58.9679 62.2067 60.1674V58.6251C58.7793 57.4256 56.2088 54.6837 55.3519 51.2563ZM59.122 49.1999H62.8921V48.0003H59.122V49.1999ZM75.5734 45.9439H77.1157C76.0875 41.6597 73.0029 38.2323 68.7187 37.0327V38.575C72.146 39.7746 74.7166 42.5165 75.5734 45.9439ZM65.9768 42.3451H64.7772V45.4298H65.9768V42.3451ZM62.0353 38.575V37.0327C57.9225 38.2323 54.6664 41.6597 53.6382 45.9439H55.1806C56.2088 42.5165 58.7793 39.7746 62.0353 38.575ZM71.1178 48.0003H68.0332V49.1999H71.1178V48.0003ZM65.4627 32.5771C56.7229 32.5771 49.5254 39.7746 49.5254 48.6858C49.5254 57.5969 56.7229 64.7944 65.4627 64.7944C74.2025 64.7944 81.4 57.5969 81.4 48.6858C81.4 39.7746 74.2025 32.5771 65.4627 32.5771ZM65.4627 62.9094C57.5797 62.9094 51.4105 56.5687 51.4105 48.6858C51.4105 40.8028 57.7511 34.4622 65.4627 34.4622C73.3456 34.4622 79.5149 40.8028 79.5149 48.6858C79.5149 56.3974 73.1743 62.9094 65.4627 62.9094ZM75.5734 51.2563C74.7166 54.6837 72.146 57.4256 68.7187 58.6251V60.1674C72.8315 58.9679 76.0875 55.5405 77.1157 51.2563H75.5734ZM65.4627 46.8007C64.4345 46.8007 63.5776 47.6576 63.5776 48.6858C63.5776 49.714 64.4345 50.5708 65.4627 50.5708C66.4909 50.5708 67.3477 49.714 67.3477 48.6858C67.3477 47.4862 66.4909 46.8007 65.4627 46.8007ZM64.7772 54.3409H65.9768V51.2563H64.7772V54.3409Z" fill="white"/>
<path d="M51.2393 42.0008L28.2759 26.4062" stroke="white" stroke-width="1.95" stroke-miterlimit="10" stroke-dasharray="1.3 1.3"/>
<path d="M30.1609 71.3067L53.4671 57.7686" stroke="white" stroke-width="1.95" stroke-miterlimit="10" stroke-dasharray="1.3 1.3"/>
<path d="M46.441 111.064L24.1631 89.2998" stroke="white" stroke-width="1.95" stroke-miterlimit="10" stroke-dasharray="1.3 1.3"/>
</svg>
