<svg width="22" height="21" viewBox="0 0 22 21" fill="none" xmlns="http://www.w3.org/2000/svg">
<path d="M15.3498 16.5238H6.68066V17.6681H15.3498V16.5238ZM19.5603 20.3771H2.43986C1.41748 20.3771 0.640259 20.0054 0.250512 19.3309C-0.139236 18.6565 -0.0725922 17.797 0.439163 16.9113L8.99854 2.08504C9.50916 1.19936 10.2208 0.711252 11.0003 0.711252C11.7787 0.711252 12.4893 1.19936 12.9999 2.08504L21.561 16.9113C22.0727 17.797 22.1394 18.6565 21.7496 19.3309C21.361 20.0054 20.5826 20.3771 19.5603 20.3771Z" fill="#97272C"/>
<path d="M14.8796 13.4415C14.8886 12.6687 14.4096 12.0158 13.986 11.4396C13.6482 10.9787 13.3296 10.5438 13.3296 10.1563C13.3296 9.28641 13.9024 8.77804 13.9261 8.75658L13.5126 8.27419C13.4799 8.30243 12.6936 8.98478 12.6936 10.1563C12.6936 10.7516 13.0901 11.2928 13.4742 11.8147C13.8561 12.3355 14.2503 12.8732 14.2447 13.4335C14.2323 14.5271 13.6064 15.0852 13.5816 15.1066L13.9928 15.5913C14.0278 15.5608 14.8626 14.8355 14.8796 13.4415Z" fill="white"/>
<path d="M14.8796 13.4415C14.8886 12.6687 14.4096 12.0158 13.986 11.4396C13.6482 10.9787 13.3296 10.5438 13.3296 10.1563C13.3296 9.28641 13.9024 8.77804 13.9261 8.75658L13.5126 8.27419C13.4799 8.30244 12.6936 8.98478 12.6936 10.1563C12.6936 10.7516 13.0901 11.2928 13.4742 11.8147C13.8561 12.3355 14.2503 12.8732 14.2447 13.4335C14.2323 14.5271 13.6064 15.0852 13.5815 15.1066L13.9928 15.5913C14.0278 15.5608 14.8626 14.8355 14.8796 13.4415Z" stroke="white" stroke-width="0.25" stroke-miterlimit="10"/>
<path d="M9.22016 13.4415C9.22919 12.6687 8.74907 12.0158 8.32656 11.4396C7.98878 10.9787 7.6702 10.5438 7.6702 10.1563C7.6702 9.28641 8.24296 8.77804 8.26669 8.75658L7.85321 8.27419C7.82045 8.30243 7.03418 8.98478 7.03418 10.1563C7.03418 10.7516 7.43071 11.2928 7.8148 11.8147C8.19664 12.3355 8.59091 12.8732 8.58526 13.4335C8.57284 14.5271 7.94698 15.0852 7.92213 15.1066L8.33334 15.5913C8.36836 15.5608 9.20321 14.8355 9.22016 13.4415Z" fill="white"/>
<path d="M9.22016 13.4415C9.22919 12.6687 8.74907 12.0158 8.32656 11.4396C7.98878 10.9787 7.6702 10.5438 7.6702 10.1563C7.6702 9.28641 8.24296 8.77804 8.26669 8.75658L7.85321 8.27419C7.82045 8.30244 7.03418 8.98478 7.03418 10.1563C7.03418 10.7516 7.43071 11.2928 7.8148 11.8147C8.19664 12.3355 8.59091 12.8732 8.58526 13.4335C8.57284 14.5271 7.94698 15.0852 7.92213 15.1066L8.33334 15.5913C8.36836 15.5608 9.20321 14.8355 9.22016 13.4415Z" stroke="white" stroke-width="0.25" stroke-miterlimit="10"/>
<path d="M11.9892 13.4415C11.9994 12.6687 11.5192 12.0158 11.0956 11.4396C10.7578 10.9787 10.4392 10.5438 10.4392 10.1563C10.4392 9.28641 11.012 8.77804 11.0357 8.75658L10.6234 8.27419C10.5895 8.30243 9.80322 8.98365 9.80322 10.1563C9.80322 10.7516 10.2009 11.2928 10.5838 11.8147C10.9668 12.3355 11.36 12.8732 11.3543 13.4335C11.3419 14.5271 10.716 15.0852 10.6912 15.1066L11.1024 15.5913C11.1374 15.5608 11.9734 14.8355 11.9892 13.4415Z" fill="white"/>
<path d="M11.9892 13.4415C11.9994 12.6687 11.5192 12.0158 11.0956 11.4396C10.7578 10.9787 10.4392 10.5438 10.4392 10.1563C10.4392 9.28641 11.012 8.77804 11.0357 8.75658L10.6234 8.27419C10.5895 8.30244 9.80322 8.98365 9.80322 10.1563C9.80322 10.7516 10.2009 11.2928 10.5838 11.8147C10.9668 12.3355 11.36 12.8732 11.3543 13.4335C11.3419 14.5271 10.716 15.0852 10.6912 15.1066L11.1024 15.5913C11.1374 15.5608 11.9734 14.8355 11.9892 13.4415Z" stroke="white" stroke-width="0.25" stroke-miterlimit="10"/>
</svg>
