<svg width="53" height="30" viewBox="0 0 53 30" fill="none" xmlns="http://www.w3.org/2000/svg">
<path d="M49.1191 14.3763C49.1191 14.2079 48.9507 14.0396 48.7824 14.0396C48.4458 14.0396 48.1091 14.0396 47.7724 14.0396C47.6041 14.0396 47.4358 14.0396 47.2675 13.8713C47.2675 13.703 47.0992 13.8713 47.0992 14.0396C46.7626 13.8713 46.7626 13.8713 46.5943 14.0396C46.5943 14.0396 46.5942 14.0396 46.4259 14.0396C46.2576 13.8713 46.2576 13.8713 45.921 14.0396L45.7527 14.2079C44.9111 14.2079 44.2378 14.2079 43.3962 14.2079H43.228C43.228 14.0396 43.228 14.0396 43.228 13.8713C43.228 12.8614 43.228 11.6832 43.228 10.6733C43.228 10.505 43.0596 10.3366 42.8913 10.1683C42.723 10.1683 42.3864 10.1683 42.3864 10.3366C42.0497 10.8416 41.713 11.1782 41.3764 11.6832C41.0398 12.0198 40.7031 12.3564 40.5348 12.6931C40.3665 12.8614 40.3665 13.0297 40.1982 13.198C40.1982 13.5347 40.1982 13.5347 39.8616 13.5347C39.8616 13.3663 39.8615 13.198 39.6932 13.198C39.5249 13.198 39.3566 13.198 39.1883 13.198C36.1586 13.0297 32.9605 13.0297 29.9308 12.8614C29.5942 12.8614 29.4259 13.0297 29.4259 13.3664V13.5347C29.4259 13.5347 29.2575 13.5347 29.2575 13.3664L29.0892 13.198C28.7526 13.0297 28.416 13.0297 28.0794 13.0297C28.0794 13.198 28.0794 13.3664 28.0794 13.3664C27.9111 13.3664 27.911 13.3664 27.911 13.3664V13.198C27.911 12.6931 27.911 12.1881 27.911 11.6832C27.911 11.1782 27.5744 10.8416 27.2378 10.8416C26.7328 10.8416 26.0596 10.6733 25.5546 10.6733C24.5447 10.505 23.5347 10.3366 22.5248 10.3366C21.6832 10.3366 20.8416 10.1683 20 10.1683C19.4951 10.1683 18.9902 10 18.4852 10C18.1486 10 17.8119 10 17.4753 10C17.1386 10 16.9703 10.1683 16.9703 10.6733C16.9703 10.8416 16.9703 11.1782 16.9703 11.5149C16.802 11.5149 16.6337 11.6832 16.6337 11.6832C16.4654 12.0198 16.2971 12.3564 16.2971 12.6931C16.2971 12.8614 16.1288 13.0297 15.9605 12.8614C15.9605 13.0297 15.9605 13.0297 15.9605 13.198H15.6238C15.6238 13.3664 15.6239 13.3663 15.4555 13.5347C15.4555 13.703 15.2872 13.703 15.1189 13.703C14.7823 13.703 14.4456 13.703 14.1089 13.703C14.1089 13.8713 14.1089 13.8713 14.1089 13.8713V13.703C13.7723 13.703 13.604 13.703 11.9208 14.0396C10.0693 14.3763 8.38612 14.2079 6.53463 13.8713C5.52472 13.703 4.34656 14.0396 3.33666 13.703C3.16834 13.703 3 13.703 3 13.8713C3 14.5446 3 15.0495 3 15.7228C3.16832 17.5743 3.16834 19.4258 3.33666 21.2773C3.33666 21.4456 3.33666 21.6139 3.33666 21.7822C3.33666 21.9506 3.50499 22.1189 3.67331 21.9505C4.34658 21.4456 5.01985 20.9406 5.35649 20.2674C5.86144 19.5941 6.87128 18.9208 7.71287 18.5842C8.38614 18.4159 9.22771 18.2476 9.90098 18.2476C10.4059 18.2476 10.9109 18.2476 11.4159 18.0793C11.7525 18.0793 11.7525 18.0792 11.7525 17.7426C11.7525 17.406 11.7525 17.0693 11.7525 16.7327C12.5941 16.7327 13.2673 16.5644 14.1089 16.5644V15.7228C14.2772 15.7228 14.4456 15.8911 14.7822 15.8911C14.9506 15.8911 14.9505 16.0594 14.9505 16.2277C14.9505 16.5644 14.9505 16.901 14.9505 17.2377C15.1188 17.2377 15.1188 17.2377 15.2872 17.2377C15.6238 17.2377 15.9605 17.406 16.2971 17.5743C16.4655 17.5743 16.6337 17.7426 16.6337 18.0793C16.802 18.5842 16.6337 19.0891 16.4654 19.4258C15.6238 20.604 14.7823 21.7822 13.7724 22.9605C13.6041 23.2971 13.4357 23.4654 13.2673 23.802C13.099 23.9704 13.0991 24.1387 13.4357 24.1387C14.4456 24.307 15.4555 24.6436 16.4654 24.812C16.6337 24.812 16.8021 24.812 16.8021 24.812C16.8021 24.6436 16.802 24.4753 16.6337 24.4753C16.4654 24.1387 16.4654 23.9704 17.307 23.4654C17.6436 23.2971 17.6437 22.7921 17.6437 22.4555L17.8119 22.2872C17.9802 22.2872 18.1485 22.2872 18.3169 22.2872C18.4852 22.2872 18.4852 22.2872 18.4852 22.1189V21.9505C18.3169 21.4456 18.3169 21.4456 18.6535 20.9406C18.6535 20.9406 18.6536 20.7723 18.8219 20.7723C18.9902 20.604 19.1585 20.4357 19.3268 20.604C19.4951 20.604 19.4952 20.604 19.6635 20.604H19.8318C19.8318 20.4357 20.0001 20.4357 20.1684 20.4357C20.8417 20.4357 21.5149 20.4357 22.3565 20.4357C22.5248 20.4357 22.6931 20.2674 22.8615 20.0991C22.8615 20.0991 22.8615 20.0991 22.8615 19.9307C22.8615 20.0991 22.8615 20.2674 23.0298 20.604H23.1981C24.5447 20.2674 26.0595 19.9307 27.4061 19.7624C27.5744 19.7624 27.5743 19.5941 27.5743 19.5941C27.5743 19.0891 27.5743 18.5842 27.5743 18.0793C27.5743 17.9109 27.5744 17.5743 27.7427 17.406C27.7427 17.2377 27.9111 17.2377 28.0794 17.2377C28.416 17.2377 28.4159 17.0693 28.4159 16.7327V16.5644C28.5842 16.5644 28.5843 16.5644 28.7526 16.5644V17.0693C29.0892 17.0693 29.4259 17.0693 29.7625 17.0693H29.9308C30.0991 17.406 30.2675 17.2377 30.6041 17.2377C32.6239 18.2476 34.9804 17.9109 37.0002 17.2377C38.1784 16.901 39.1882 17.0693 40.1982 17.0693C40.1982 16.901 40.1982 16.901 40.1982 16.901V16.7327C40.1982 16.7327 40.3665 16.7327 40.3665 16.901C40.3665 17.0693 40.3665 17.0693 40.3665 17.2377C40.3665 17.406 40.3665 17.5743 40.3665 17.7426C40.3665 18.2476 40.7032 18.4159 41.2081 18.2476C41.2081 17.9109 41.2081 17.5743 41.2081 17.406V17.2377V17.0693C41.3764 16.7327 41.3765 16.3961 41.5448 16.2277C41.5448 16.0594 41.5447 16.0594 41.7131 16.0594C42.0497 16.0594 42.3863 16.0594 42.7229 16.0594C43.0596 16.0594 43.0596 16.0594 43.228 16.3961H43.9012C43.9012 16.2278 43.9012 16.2277 43.9012 16.0594C44.0695 16.0594 44.0695 16.0594 44.0695 16.0594C44.9111 16.0594 45.921 16.0594 46.7626 16.0594C46.9309 16.0594 47.0992 16.0594 47.0992 16.2277C47.0992 16.2277 47.0992 16.0594 47.2675 16.0594C47.4358 16.0594 47.4359 16.2277 47.6042 16.2277L47.7724 16.0594L47.9408 16.2277C48.1091 16.0594 48.2774 16.0594 48.614 16.0594C48.9507 16.0594 49.119 16.0594 49.4556 16.0594H49.624C49.119 14.8812 49.1191 14.5446 49.1191 14.3763ZM22.1883 19.2575C22.0199 19.4258 22.0199 19.4258 21.8516 19.4258C21.1783 19.4258 20.505 19.4258 20 19.4258C19.8317 19.4258 19.8318 19.4258 19.6635 19.2575C19.4952 19.0892 19.3268 18.9208 19.3268 18.7525C19.1585 18.4159 19.1585 18.2476 19.3268 17.9109C19.4951 17.7426 19.8317 17.5743 20 17.5743C19.8317 18.0792 19.6635 18.5842 20.1684 19.0892C20.1684 18.7525 20.1684 18.4159 20.3367 18.0793C20.505 17.7426 20.5051 17.5743 21.01 17.5743C21.515 17.5743 22.1882 17.7426 22.6932 17.9109C22.5249 18.4159 22.5249 18.9208 22.1883 19.2575ZM26.5645 12.0198C26.2278 12.0198 26.0595 12.0198 25.8912 12.0198C25.5545 12.0198 25.2179 12.0198 24.8813 12.0198C24.0397 12.0198 23.0298 12.0198 22.1883 12.0198C22.0199 12.0198 21.6833 12.0198 21.5149 12.0198C21.1783 12.0198 21.01 12.0198 20.6734 12.0198C20.505 12.0198 20.1684 12.0198 20 12.0198C19.8317 12.0198 19.6635 11.6832 19.6635 11.5149C19.6635 11.1782 19.6634 11.0099 20 11.0099H20.1684C22.1882 11.0099 24.208 11.0099 26.2278 10.8416C26.3961 10.8416 26.5644 10.8416 26.7327 10.8416C27.0694 10.8416 27.0694 11.0099 27.0694 11.3465C27.0694 11.5149 27.0694 11.8515 27.0694 12.0198C27.0694 12.0198 27.0694 12.0198 27.0694 12.1881C27.0694 12.0198 26.7328 12.0198 26.5645 12.0198ZM37.8418 13.8713C38.1784 13.8713 38.1784 13.8713 38.1784 14.2079C38.0101 14.2079 37.8417 14.2079 37.5051 14.2079C37.5051 13.8713 37.5051 13.8713 37.8418 13.8713ZM35.8219 13.8713H35.9902C36.1585 13.8713 36.1586 13.8713 36.1586 14.2079C35.9903 14.2079 35.8219 14.2079 35.4853 14.2079C35.6536 13.8713 35.6536 13.8713 35.8219 13.8713ZM34.8121 13.8713C34.9804 13.8713 34.9804 13.8713 34.8121 13.8713C35.1487 13.8713 35.1486 13.8713 35.1486 14.2079C34.9803 14.2079 34.6437 14.2079 34.4754 14.2079C34.6437 13.8713 34.6438 13.8713 34.8121 13.8713ZM32.6239 13.8713C32.7922 13.8713 32.9605 13.8713 32.9605 13.8713C33.1288 13.8713 33.1289 14.0396 33.1289 14.2079C32.9606 14.2079 32.6239 14.2079 32.4556 14.2079C32.6239 14.0396 32.6239 13.8713 32.6239 13.8713ZM31.9507 13.8713H32.1189C32.2872 13.8713 32.2873 13.8713 32.2873 14.2079C32.119 14.2079 31.7823 14.2079 31.614 14.2079C31.614 13.8713 31.614 13.8713 31.9507 13.8713ZM30.9407 13.8713C31.2773 13.8713 31.4457 13.8713 31.2773 14.2079C31.109 14.2079 30.7724 14.2079 30.6041 14.2079C30.6041 13.8713 30.604 13.8713 30.9407 13.8713ZM29.7625 13.8713C29.9309 13.8713 29.9308 13.8713 30.0991 13.8713C30.2674 13.8713 30.2674 13.8713 30.4358 13.8713C30.4358 14.0396 30.4358 14.0396 30.4358 14.2079C30.2674 14.2079 29.9309 14.2079 29.7625 14.2079C29.7625 14.0396 29.7625 13.8713 29.7625 13.8713ZM30.2675 14.7129C30.0992 14.7129 29.9308 14.7129 29.5942 14.7129C29.5942 14.5446 29.5942 14.5446 29.5942 14.3763C29.7625 14.3763 30.0992 14.3763 30.2675 14.3763C30.2675 14.5446 30.2675 14.7129 30.2675 14.7129ZM30.9407 14.7129C30.604 14.7129 30.7724 14.5446 30.7724 14.3763C30.9407 14.3763 31.2774 14.3763 31.4457 14.3763C31.2774 14.7129 31.2773 14.7129 30.9407 14.7129ZM32.2873 14.7129C32.119 14.8812 31.9506 14.7129 31.7823 14.7129C31.7823 14.7129 31.7823 14.5446 31.614 14.3763C31.9506 14.3763 32.119 14.3763 32.2873 14.3763C32.2873 14.5446 32.2873 14.7129 32.2873 14.7129ZM33.2972 14.7129C33.1289 14.7129 32.9605 14.7129 32.6239 14.7129C32.6239 14.5446 32.6239 14.5446 32.6239 14.3763C32.7922 14.3763 33.1289 14.3763 33.2972 14.3763C33.2972 14.5446 33.2972 14.7129 33.2972 14.7129ZM34.307 14.7129C34.1387 14.7129 33.9704 14.7129 33.8021 14.7129C33.8021 14.7129 33.6338 14.7129 33.6338 14.5446V14.3763C33.8021 14.3763 34.1387 14.3763 34.307 14.3763C34.307 14.5446 34.307 14.7129 34.307 14.7129ZM33.6338 14.0396C33.6338 13.703 33.6338 13.703 33.8021 13.703C33.9704 13.703 33.9704 13.703 34.1388 13.703C34.1388 13.8713 34.1388 13.8713 34.1388 14.0396C33.9704 14.0396 33.8021 14.0396 33.6338 14.0396ZM35.1486 14.7129C34.9803 14.7129 34.812 14.7129 34.6437 14.7129C34.6437 14.7129 34.6437 14.5446 34.4754 14.3763C34.8121 14.3763 34.9803 14.3763 35.1486 14.3763C35.3169 14.5446 35.1486 14.7129 35.1486 14.7129ZM35.9902 14.8812C35.6536 14.8812 35.6537 14.8812 35.6537 14.5446C35.822 14.5446 36.1586 14.5446 36.3269 14.5446C36.1586 14.8812 36.1585 14.8812 35.9902 14.8812ZM36.8318 13.8713C37.3368 13.8713 37.3368 13.8713 37.3368 14.2079C37.1685 14.2079 37.0001 14.2079 36.8318 14.2079H36.6635C36.4952 14.0396 36.4952 13.8713 36.8318 13.8713ZM36.8318 14.8812C36.6635 14.8812 36.6635 14.8812 36.6635 14.5446C36.8318 14.5446 37.1685 14.5446 37.3368 14.5446C37.1685 14.8812 37.1684 14.8812 36.8318 14.8812ZM38.1784 14.8812C38.0101 15.0495 37.8417 14.8812 37.6734 14.8812C37.6734 14.8812 37.6734 14.7129 37.5051 14.5446C37.8417 14.5446 38.0101 14.5446 38.1784 14.5446C38.1784 14.5446 38.1784 14.7129 38.1784 14.8812ZM38.6834 13.8713C38.8517 13.8713 39.02 13.8713 39.1883 13.8713C39.1883 14.0396 39.1883 14.0396 39.1883 14.2079C39.02 14.2079 38.6833 14.2079 38.515 14.2079C38.515 14.0396 38.515 13.8713 38.6834 13.8713ZM39.1883 14.8812C39.02 14.8812 38.8517 14.8812 38.6834 14.8812C38.6834 14.8812 38.515 14.7129 38.515 14.5446C38.8516 14.5446 39.02 14.5446 39.1883 14.5446C39.1883 14.7129 39.1883 14.7129 39.1883 14.8812ZM42.218 14.0396C41.713 14.0396 41.2081 14.0396 40.7032 14.0396C40.7032 13.703 40.7031 13.703 41.0397 13.703C41.3764 13.703 41.713 13.703 41.8813 13.703C42.218 13.703 42.3863 13.703 42.218 14.0396ZM42.7229 12.8614C42.7229 13.0297 42.723 13.198 42.3864 13.0297C42.218 13.0297 42.0496 13.0297 41.8813 13.0297C41.713 13.0297 41.5447 13.0297 41.3764 13.0297C41.2081 13.0297 41.0398 13.0297 40.8715 13.0297C40.7031 13.0297 40.5349 13.0297 40.3665 13.0297H40.1982V12.8614C40.3665 12.5248 40.7031 12.1881 40.8715 12.0198C41.0398 11.8515 41.2081 11.5149 41.3764 11.3465C41.3764 11.3465 41.5447 11.1782 41.7131 11.1782C41.7131 11.1782 41.713 11.3465 41.8813 11.5149C41.8813 12.0198 41.8814 12.0198 42.3864 12.0198C42.5547 12.0198 42.5546 12.0198 42.5546 12.1881C42.723 12.3565 42.7229 12.5248 42.7229 12.8614ZM48.614 14.5446C48.2774 14.5446 47.9408 14.5446 47.6042 14.5446C47.6042 14.3763 47.6042 14.3763 47.6042 14.2079C47.9408 14.2079 48.2774 14.2079 48.614 14.2079C48.614 14.3763 48.614 14.5446 48.614 14.5446Z" fill="white"/>
<path d="M25.8911 19.4256C25.8911 20.4355 26.0595 21.4454 26.3961 22.287C26.5644 23.2969 26.9011 24.1385 27.2377 25.1484C27.2377 25.1484 27.0694 25.1484 26.9011 25.1484C26.0595 23.2969 25.7229 21.4454 25.5545 19.4256C25.2179 19.4256 25.0495 19.5939 24.8812 19.5939C24.8812 20.6038 25.0496 21.6138 25.2179 22.6237C25.3862 23.6336 25.7228 24.4752 26.0595 25.4851C25.8912 25.4851 25.7228 25.4851 25.7228 25.6534C24.8812 23.8019 24.5446 21.7821 24.3763 19.7623C24.208 19.7623 24.0397 19.7623 23.8714 19.9306C23.703 19.9306 23.703 20.0989 23.703 20.2672C23.8713 21.9504 24.208 23.6336 24.7129 25.3167C24.7129 25.4851 24.8812 25.6534 24.8812 25.99C24.7129 25.99 24.5446 25.99 24.5446 26.1583C23.703 24.3068 23.3664 22.287 23.198 20.2672C23.0297 20.2672 22.8614 20.2672 22.6931 20.4355C22.6931 20.6038 22.6931 20.7722 22.6931 20.9405C22.6931 21.9504 22.8614 22.792 23.198 23.8019C23.5347 24.8118 23.703 25.8217 24.0396 26.8316C24.0396 26.9999 24.208 26.9999 24.3763 26.9999C25.2179 26.6633 26.2277 26.495 27.0693 26.1583C27.406 25.99 27.7427 25.99 28.0793 25.8217C27.406 23.8019 27.0694 21.7821 26.9011 19.5939C26.5644 19.2573 26.2277 19.4256 25.8911 19.4256Z" fill="white"/>
</svg>
