<svg width="30" height="22" viewBox="0 0 30 22" fill="none" xmlns="http://www.w3.org/2000/svg">
<path d="M29.4546 0H28.1588H12.9136C10.2457 8.15615 10.2457 15.3214 10.2457 15.3214C10.7793 16.9221 12.38 18.8277 13.9046 20.5809C15.4291 22.3341 15.2766 20.5809 15.2766 20.5809C13.4472 12.0437 17.9445 6.63164 18.9355 5.56448C21.6796 2.6679 25.7195 1.67697 27.8539 1.29584C28.3874 1.21961 28.7686 1.21961 29.0735 1.21961H29.3784C29.6833 1.21961 29.9882 0.990934 29.9882 0.609806C30.0644 0.228677 29.7595 0 29.4546 0ZM13.2185 16.3123C12.9899 16.6172 12.5325 16.6172 12.2276 16.3885C11.9227 16.1598 11.9227 15.7025 12.1514 15.3976C12.38 15.0927 12.8374 15.0927 13.1423 15.3214C13.4472 15.55 13.5234 16.0074 13.2185 16.3123ZM13.8283 12.7297C13.4472 13.187 12.7612 13.187 12.38 12.8059C11.9227 12.4248 11.9227 11.7388 12.3038 11.3576C12.685 10.9003 13.371 10.9003 13.7521 11.2814C14.1332 11.5863 14.2095 12.2723 13.8283 12.7297ZM15.1242 8.76595C14.5906 9.37576 13.7521 9.37576 13.1423 8.91841C12.5325 8.38483 12.5325 7.54634 12.9899 6.93654C13.5234 6.32673 14.3619 6.32673 14.9717 6.78409C15.5815 7.31767 15.5815 8.15615 15.1242 8.76595ZM17.1823 4.64977C16.5725 5.3358 15.4291 5.41202 14.743 4.80222C14.057 4.19241 13.9808 3.04903 14.5906 2.363C15.2004 1.67697 16.3438 1.60074 17.0298 2.21055C17.7158 2.82035 17.7921 3.88751 17.1823 4.64977Z" fill="#808080"/>
<path d="M1.93714 0H1.02242H0.641296C0.336393 0 0.0314941 0.228677 0.0314941 0.609806C0.0314941 0.914708 0.260168 1.21961 0.641296 1.21961H0.9462C1.17488 1.21961 1.47978 1.21961 1.86091 1.29584C3.99523 1.60074 8.79744 2.51545 10.2457 5.48825C10.6269 3.81128 11.0842 1.90564 11.694 0H1.93714Z" fill="#A01D21"/>
</svg>
